Older projects/DSLAB7_Q2/simulation/qsim/DSLAB7_Q2.msim.vcd
$comment
	File created using the following command:
		vcd file DSLAB7_Q2.msim.vcd -direction
$end
$date
	Fri Apr 22 15:18:53 2022
$end
$version
	ModelSim Version 10.5b
$end
$timescale
	1ps
$end

$scope module DSLAB7_Q2_vlg_vec_tst $end
$var reg 1 ! IN_R1 $end
$var reg 1 " IN_R2 $end
$var reg 1 # IN_R3 $end
$var reg 1 $ IN_UMPIRE $end
$var wire 1 % OUT_Q1 $end
$var wire 1 & OUT_Q2 $end
$var wire 1 ' OUT_Q3 $end

$scope module i1 $end
$var wire 1 ( gnd $end
$var wire 1 ) vcc $end
$var wire 1 * unknown $end
$var tri1 1 + devclrn $end
$var tri1 1 , devpor $end
$var tri1 1 - devoe $end
$var wire 1 . OUT_Q1~output_o $end
$var wire 1 / OUT_Q2~output_o $end
$var wire 1 0 OUT_Q3~output_o $end
$var wire 1 1 IN_R3~input_o $end
$var wire 1 2 IN_R2~input_o $end
$var wire 1 3 inst12~combout $end
$var wire 1 4 IN_UMPIRE~input_o $end
$var wire 1 5 inst1~combout $end
$var wire 1 6 inst7~combout $end
$var wire 1 7 inst7~clkctrl_outclk $end
$var wire 1 8 IN_R1~input_o $end
$var wire 1 9 inst11~combout $end
$var wire 1 : inst~combout $end
$var wire 1 ; inst9~0_combout $end
$var wire 1 < inst9~1_combout $end
$var wire 1 = inst9~2_combout $end
$upscope $end
$upscope $end
$enddefinitions $end
#0
$dumpvars
0!
0"
0#
0$
0%
0&
0'
0(
1)
x*
1+
1,
1-
0.
0/
00
01
02
03
04
05
06
07
08
09
0:
0;
0<
0=
$end
#10000
1!
1$
18
14
19
1:
16
17
1;
1.
1%
#20000
0!
08
09
#30000
1"
1#
12
11
13
19
#35000
0"
0#
02
01
03
09
#40000
1#
11
19
13
#50000
1!
18
#60000
0!
08
#75000
0#
01
09
03
#110000
0$
04
0:
06
07
0;
0.
0%
#120000
1$
14
#170000
1"
12
13
15
16
17
1<
1/
1&
#180000
0"
02
03
#200000
1!
1#
1"
18
11
12
19
13
#210000
0!
08
#230000
0#
0"
01
02
09
03
#250000
1!
1"
18
12
19
13
#270000
1#
0!
0"
11
08
02
#280000
0#
01
09
03
#290000
0$
04
05
06
07
0<
0/
0&
#300000
1$
14
#360000
1#
11
19
13
1:
15
16
17
1=
10
1'
#410000
1!
18
#420000
0!
08
#430000
1!
18
#440000
0!
08
#450000
1!
18
#460000
0!
08
#465000
1"
12
#470000
1!
0"
18
02
#475000
1"
12
#480000
0#
0!
0"
01
08
02
09
03
#485000
1"
12
13
#490000
1!
0"
18
02
19
03
#495000
1"
12
13
#500000
0!
0"
08
02
09
03
#505000
1"
12
13
#510000
1!
0"
18
02
19
03
#515000
1"
12
13
#520000
0!
0"
08
02
09
03
#525000
1"
12
13
#530000
1!
0"
18
02
19
03
#535000
1"
12
13
#540000
0!
0"
08
02
09
03
#545000
1"
12
13
#550000
0"
02
03
#555000
1"
12
13
#560000
0"
02
03
#565000
1"
12
13
#570000
0"
02
03
#630000
0$
04
0:
05
06
07
0=
00
0'
#640000
1$
14
#660000
1#
1!
1"
11
18
12
19
13
1:
15
16
17
1=
10
1'
#710000
0#
0!
0"
01
08
02
09
03
#730000
0$
04
0:
05
06
07
0=
00
0'
#740000
1$
14
#780000
1#
1!
1"
0$
11
18
12
04
19
13
#820000
0#
0!
0"
1$
01
08
02
14
09
03
1:
15
0:
05
16
17
1=
10
06
1'
07
0=
00
0'
#860000
0$
04
#870000
1$
14
