Older projects/LAB_VHDL_EXP1/simulation/qsim/VhdlLab_exp1.msim.vcd
$comment
	File created using the following command:
		vcd file VhdlLab_exp1.msim.vcd -direction
$end
$date
	Mon Mar 20 20:16:28 2023
$end
$version
	ModelSim Version 2020.1
$end
$timescale
	1ps
$end

$scope module fa_bitvector_vhd_vec_tst $end
$var wire 1 ! a [3] $end
$var wire 1 " a [2] $end
$var wire 1 # a [1] $end
$var wire 1 $ a [0] $end
$var wire 1 % b [3] $end
$var wire 1 & b [2] $end
$var wire 1 ' b [1] $end
$var wire 1 ( b [0] $end
$var wire 1 ) s [4] $end
$var wire 1 * s [3] $end
$var wire 1 + s [2] $end
$var wire 1 , s [1] $end
$var wire 1 - s [0] $end

$scope module i1 $end
$var wire 1 . gnd $end
$var wire 1 / vcc $end
$var wire 1 0 unknown $end
$var wire 1 1 devoe $end
$var wire 1 2 devclrn $end
$var wire 1 3 devpor $end
$var wire 1 4 ww_devoe $end
$var wire 1 5 ww_devclrn $end
$var wire 1 6 ww_devpor $end
$var wire 1 7 ww_a [3] $end
$var wire 1 8 ww_a [2] $end
$var wire 1 9 ww_a [1] $end
$var wire 1 : ww_a [0] $end
$var wire 1 ; ww_b [3] $end
$var wire 1 < ww_b [2] $end
$var wire 1 = ww_b [1] $end
$var wire 1 > ww_b [0] $end
$var wire 1 ? ww_s [4] $end
$var wire 1 @ ww_s [3] $end
$var wire 1 A ww_s [2] $end
$var wire 1 B ww_s [1] $end
$var wire 1 C ww_s [0] $end
$var wire 1 D \s[0]~output_o\ $end
$var wire 1 E \s[1]~output_o\ $end
$var wire 1 F \s[2]~output_o\ $end
$var wire 1 G \s[3]~output_o\ $end
$var wire 1 H \s[4]~output_o\ $end
$var wire 1 I \b[0]~input_o\ $end
$var wire 1 J \a[0]~input_o\ $end
$var wire 1 K \b[1]~input_o\ $end
$var wire 1 L \a[1]~input_o\ $end
$var wire 1 M \s~0_combout\ $end
$var wire 1 N \b[2]~input_o\ $end
$var wire 1 O \a[2]~input_o\ $end
$var wire 1 P \c[2]~0_combout\ $end
$var wire 1 Q \s~1_combout\ $end
$var wire 1 R \a[3]~input_o\ $end
$var wire 1 S \c[3]~1_combout\ $end
$var wire 1 T \b[3]~input_o\ $end
$var wire 1 U \c[3]~2_combout\ $end
$var wire 1 V \s~2_combout\ $end
$var wire 1 W \c~3_combout\ $end
$var wire 1 X temp [3] $end
$var wire 1 Y temp [2] $end
$var wire 1 Z temp [1] $end
$var wire 1 [ temp [0] $end
$upscope $end
$upscope $end
$enddefinitions $end
#0
$dumpvars
0.
1/
x0
11
12
13
14
15
16
0D
0E
0F
0G
1H
0I
0J
1K
1L
0M
1N
0O
1P
0Q
0R
0S
1T
1U
0V
1W
0!
0"
1#
0$
1%
1&
1'
0(
1)
0*
0+
0,
0-
07
08
19
0:
1;
1<
1=
0>
1?
0@
0A
0B
0C
xX
xY
xZ
0[
$end
#40000
1"
1$
0%
0&
0'
1:
18
0=
0<
0;
0T
0N
0K
1O
1J
1[
1S
1M
0P
0U
1V
0W
1Q
0S
0V
0H
1G
1E
1D
0?
1@
1B
1C
1F
1-
1,
1*
0)
1A
0G
1+
0@
0*
#80000
1%
1&
1!
1(
1>
1<
1;
17
1R
1T
1N
1I
0[
0M
1P
0Q
1U
1W
1V
1Q
1S
1H
0F
0E
0D
1?
0A
0B
0C
1F
1G
0-
0,
0+
1)
1A
1@
1+
1*
#120000
0%
0(
0"
0$
0>
0;
0:
08
0O
0J
0T
0I
0V
1M
0P
0Q
0S
1Q
0U
1V
0W
0F
1E
0G
0A
1B
0@
1F
1,
0+
0*
1A
0H
1G
1+
0?
1@
1*
0)
#160000
0&
0!
1'
1=
0<
07
0R
0N
1K
0M
1P
0Q
0V
1Q
0G
0F
0E
0@
0A
0B
1F
0,
0+
0*
1A
1+
#200000
1%
1(
1"
1$
0#
1>
1;
1:
09
18
1O
0L
1J
1T
1I
1V
0Q
1S
0V
1W
0F
1G
0A
1@
1H
0G
0+
1*
1?
0@
0*
1)
#240000
0%
0"
0$
1#
0;
0:
19
08
0O
1L
0J
0T
1V
0W
1[
1Q
0S
0V
1F
1D
0H
1G
1A
1C
0?
1@
0G
1-
1+
1*
0)
0@
0*
#280000
1%
1"
0#
1!
1;
09
18
17
1R
1O
0L
1T
1M
0P
0Q
1S
1W
1V
1Q
0S
0V
1H
0F
1E
1?
0A
1B
1F
1G
1,
0+
1)
1A
1@
0G
1+
1*
0@
0*
#320000
0"
1#
0!
1$
0(
1&
1:
19
08
07
0>
1<
1N
0I
0R
0O
1L
1J
1V
0W
0M
1P
0Q
1U
0V
1W
0E
0H
1G
0B
0?
1@
0F
0,
1*
0)
0A
1H
0G
0+
1?
0@
0*
1)
#360000
1"
0#
1!
1(
0&
09
18
17
1>
0<
0N
1I
1R
1O
0L
1S
1V
0[
0U
0D
1G
0C
1@
0-
1*
#400000
1#
0(
0'
19
0>
0=
0K
0I
1L
1[
1M
0P
1Q
0S
0V
1E
1D
1B
1C
1F
1-
1,
1A
0G
1+
0@
0*
#440000
1(
0"
1>
08
0O
1I
0[
0M
1P
0Q
1Q
0F
0E
0D
0A
0B
0C
1F
0-
0,
0+
1A
1+
#480000
1"
0!
0$
0:
18
07
0R
1O
0J
1[
1M
0P
0Q
1S
1V
0W
0V
1W
1Q
0S
1V
0W
0H
1G
0F
1E
1D
0?
1@
0A
1B
1C
1F
1H
0G
1-
1,
0+
1*
0)
1A
1?
0@
0H
1G
1+
0*
1)
0?
1@
1*
0)
#520000
0"
1!
1$
0(
1&
0%
1:
08
17
0>
1<
0;
0T
1N
0I
1R
0O
1J
#560000
0$
1(
0:
1>
1I
0J
#600000
0(
1"
0!
0&
0#
1'
0>
1=
0<
09
18
07
0R
1O
0L
0N
1K
0I
0[
0V
0G
0D
0@
0C
0-
0*
#640000
1(
0"
1&
1>
1<
08
0O
1N
1I
1[
1D
1C
1-
#680000
0(
1"
1!
1#
0'
1$
0>
0=
1:
19
18
17
1R
1O
1L
1J
0K
0I
0Q
1U
1V
0V
1W
1G
0F
1@
0A
1H
0G
0+
1*
1?
0@
0*
1)
#720000
1(
0!
1'
0$
0&
1>
1=
0<
0:
07
0R
0J
0N
1K
1I
1Q
0U
0M
1P
1V
0W
0Q
1S
0V
1V
0H
1G
0E
1F
0?
1@
0B
1A
0G
0F
0,
1+
1*
0)
0@
0A
1G
0+
0*
1@
1*
#760000
1!
0'
1$
1&
0#
1:
09
17
0=
1<
1N
0K
1R
0L
1J
0[
0V
1W
1M
0P
1Q
1U
0Q
0S
1F
1E
1H
0G
0D
1A
1B
1?
0@
0C
0F
0-
1,
1+
0*
1)
0A
0+
#800000
0&
0"
0<
08
0O
0N
0U
1V
0W
0H
1G
0?
1@
1*
0)
#840000
1&
1'
0(
0>
1=
1<
1N
1K
0I
1[
1Q
1F
1D
1A
1C
1-
1+
#880000
1"
0!
1#
19
18
07
0R
1O
1L
0M
1P
0Q
1U
0V
1V
1Q
1S
0G
0F
0E
0@
0A
0B
1F
1G
0,
0+
0*
1A
1@
1+
1*
#920000
0"
1!
0&
0$
1%
0:
08
17
0<
1;
1T
0N
1R
0O
0J
0[
0S
0U
1W
0V
1H
0D
1?
0C
0G
0-
1)
0@
0*
#960000
1"
1&
0%
0#
0'
1(
09
18
1>
0=
1<
0;
0T
1N
0K
1I
1O
0L
1S
1[
0P
1U
1V
0W
0Q
0S
0V
1W
0H
1G
1D
0?
1@
1C
1H
0G
0F
1-
1*
0)
1?
0@
0A
0+
0*
1)
