Older projects/LAB_VHDL_EXP2/simulation/qsim/PIC_Lab2.msim.vcd
$comment
	File created using the following command:
		vcd file PIC_Lab2.msim.vcd -direction
$end
$date
	Sun Apr 16 16:59:04 2023
$end
$version
	ModelSim Version 2020.1
$end
$timescale
	1ps
$end

$scope module pic_lab2_vhd_vec_tst $end
$var wire 1 ! clk $end
$var wire 1 " cs_n $end
$var wire 1 # d [7] $end
$var wire 1 $ d [6] $end
$var wire 1 % d [5] $end
$var wire 1 & d [4] $end
$var wire 1 ' d [3] $end
$var wire 1 ( d [2] $end
$var wire 1 ) d [1] $end
$var wire 1 * d [0] $end
$var wire 1 + inta_n $end
$var wire 1 , irq [7] $end
$var wire 1 - irq [6] $end
$var wire 1 . irq [5] $end
$var wire 1 / irq [4] $end
$var wire 1 0 irq [3] $end
$var wire 1 1 irq [2] $end
$var wire 1 2 irq [1] $end
$var wire 1 3 irq [0] $end
$var wire 1 4 irq_pic $end
$var wire 1 5 rd_n $end
$var wire 1 6 rst_n $end
$var wire 1 7 wr_n $end

$scope module i1 $end
$var wire 1 8 gnd $end
$var wire 1 9 vcc $end
$var wire 1 : unknown $end
$var wire 1 ; devoe $end
$var wire 1 < devclrn $end
$var wire 1 = devpor $end
$var wire 1 > ww_devoe $end
$var wire 1 ? ww_devclrn $end
$var wire 1 @ ww_devpor $end
$var wire 1 A ww_cs_n $end
$var wire 1 B ww_wr_n $end
$var wire 1 C ww_rd_n $end
$var wire 1 D ww_clk $end
$var wire 1 E ww_rst_n $end
$var wire 1 F ww_inta_n $end
$var wire 1 G ww_irq [7] $end
$var wire 1 H ww_irq [6] $end
$var wire 1 I ww_irq [5] $end
$var wire 1 J ww_irq [4] $end
$var wire 1 K ww_irq [3] $end
$var wire 1 L ww_irq [2] $end
$var wire 1 M ww_irq [1] $end
$var wire 1 N ww_irq [0] $end
$var wire 1 O ww_d [7] $end
$var wire 1 P ww_d [6] $end
$var wire 1 Q ww_d [5] $end
$var wire 1 R ww_d [4] $end
$var wire 1 S ww_d [3] $end
$var wire 1 T ww_d [2] $end
$var wire 1 U ww_d [1] $end
$var wire 1 V ww_d [0] $end
$var wire 1 W ww_irq_pic $end
$var wire 1 X \read_rst~clkctrl_INCLK_bus\ [3] $end
$var wire 1 Y \read_rst~clkctrl_INCLK_bus\ [2] $end
$var wire 1 Z \read_rst~clkctrl_INCLK_bus\ [1] $end
$var wire 1 [ \read_rst~clkctrl_INCLK_bus\ [0] $end
$var wire 1 \ \rst_n~inputclkctrl_INCLK_bus\ [3] $end
$var wire 1 ] \rst_n~inputclkctrl_INCLK_bus\ [2] $end
$var wire 1 ^ \rst_n~inputclkctrl_INCLK_bus\ [1] $end
$var wire 1 _ \rst_n~inputclkctrl_INCLK_bus\ [0] $end
$var wire 1 ` \clk~inputclkctrl_INCLK_bus\ [3] $end
$var wire 1 a \clk~inputclkctrl_INCLK_bus\ [2] $end
$var wire 1 b \clk~inputclkctrl_INCLK_bus\ [1] $end
$var wire 1 c \clk~inputclkctrl_INCLK_bus\ [0] $end
$var wire 1 d \d[0]~output_o\ $end
$var wire 1 e \d[1]~output_o\ $end
$var wire 1 f \d[2]~output_o\ $end
$var wire 1 g \d[3]~output_o\ $end
$var wire 1 h \d[4]~output_o\ $end
$var wire 1 i \d[5]~output_o\ $end
$var wire 1 j \d[6]~output_o\ $end
$var wire 1 k \d[7]~output_o\ $end
$var wire 1 l \irq_pic~output_o\ $end
$var wire 1 m \clk~input_o\ $end
$var wire 1 n \clk~inputclkctrl_outclk\ $end
$var wire 1 o \irq[2]~input_o\ $end
$var wire 1 p \d[2]~input_o\ $end
$var wire 1 q \Reg_mask|dout[2]~feeder_combout\ $end
$var wire 1 r \rst_n~input_o\ $end
$var wire 1 s \rst_n~inputclkctrl_outclk\ $end
$var wire 1 t \cs_n~input_o\ $end
$var wire 1 u \wr_n~input_o\ $end
$var wire 1 v \Ctrl|mask~0_combout\ $end
$var wire 1 w \irq[7]~input_o\ $end
$var wire 1 x \irq[6]~input_o\ $end
$var wire 1 y \d[7]~input_o\ $end
$var wire 1 z \d[6]~input_o\ $end
$var wire 1 { \Encoder|prio[5]~6_combout\ $end
$var wire 1 | \d[3]~input_o\ $end
$var wire 1 } \irq[3]~input_o\ $end
$var wire 1 ~ \irq[5]~input_o\ $end
$var wire 1 !! \d[5]~input_o\ $end
$var wire 1 "! \irq[4]~input_o\ $end
$var wire 1 #! \d[4]~input_o\ $end
$var wire 1 $! \Encoder|prio[2]~8_combout\ $end
$var wire 1 %! \irq[1]~input_o\ $end
$var wire 1 &! \irq[0]~input_o\ $end
$var wire 1 '! \d[0]~input_o\ $end
$var wire 1 (! \d[1]~input_o\ $end
$var wire 1 )! \Reg_mask|dout[1]~feeder_combout\ $end
$var wire 1 *! \Encoder|prio[0]~11_combout\ $end
$var wire 1 +! \Encoder|prio[0]~12_combout\ $end
$var wire 1 ,! \inta_n~input_o\ $end
$var wire 1 -! \read_rst~combout\ $end
$var wire 1 .! \read_rst~clkctrl_outclk\ $end
$var wire 1 /! \Encoder|prio[5]~13_combout\ $end
$var wire 1 0! \Encoder|prio[4]~14_combout\ $end
$var wire 1 1! \Ctrl|Equal0~0_combout\ $end
$var wire 1 2! \Encoder|prio[2]~9_combout\ $end
$var wire 1 3! \Encoder|prio[1]~10_combout\ $end
$var wire 1 4! \Encoder|prio[3]~7_combout\ $end
$var wire 1 5! \Ctrl|Equal0~1_combout\ $end
$var wire 1 6! \Ctrl|Equal0~2_combout\ $end
$var wire 1 7! \rd_n~input_o\ $end
$var wire 1 8! \Ctrl|d~8_combout\ $end
$var wire 1 9! \Reg_read|dout\ [7] $end
$var wire 1 :! \Reg_read|dout\ [6] $end
$var wire 1 ;! \Reg_read|dout\ [5] $end
$var wire 1 <! \Reg_read|dout\ [4] $end
$var wire 1 =! \Reg_read|dout\ [3] $end
$var wire 1 >! \Reg_read|dout\ [2] $end
$var wire 1 ?! \Reg_read|dout\ [1] $end
$var wire 1 @! \Reg_read|dout\ [0] $end
$var wire 1 A! \Reg_mask|dout\ [7] $end
$var wire 1 B! \Reg_mask|dout\ [6] $end
$var wire 1 C! \Reg_mask|dout\ [5] $end
$var wire 1 D! \Reg_mask|dout\ [4] $end
$var wire 1 E! \Reg_mask|dout\ [3] $end
$var wire 1 F! \Reg_mask|dout\ [2] $end
$var wire 1 G! \Reg_mask|dout\ [1] $end
$var wire 1 H! \Reg_mask|dout\ [0] $end
$var wire 1 I! \Encoder|prio\ [7] $end
$var wire 1 J! \Encoder|prio\ [6] $end
$var wire 1 K! \Encoder|prio\ [5] $end
$var wire 1 L! \Encoder|prio\ [4] $end
$var wire 1 M! \Encoder|prio\ [3] $end
$var wire 1 N! \Encoder|prio\ [2] $end
$var wire 1 O! \Encoder|prio\ [1] $end
$var wire 1 P! \Encoder|prio\ [0] $end
$var wire 1 Q! \Encoder|masked_irq\ [7] $end
$var wire 1 R! \Encoder|masked_irq\ [6] $end
$var wire 1 S! \Encoder|masked_irq\ [5] $end
$var wire 1 T! \Encoder|masked_irq\ [4] $end
$var wire 1 U! \Encoder|masked_irq\ [3] $end
$var wire 1 V! \Encoder|masked_irq\ [2] $end
$var wire 1 W! \Encoder|masked_irq\ [1] $end
$var wire 1 X! \Encoder|masked_irq\ [0] $end
$var wire 1 Y! \ALT_INV_read_rst~clkctrl_outclk\ $end
$upscope $end
$upscope $end
$enddefinitions $end
#0
$dumpvars
0!
1"
1+
04
05
06
07
08
19
x:
1;
1<
1=
1>
1?
1@
1A
0B
0C
0D
0E
1F
0W
zd
ze
zf
zg
zh
zi
zj
zk
0l
0m
0n
1o
xp
xq
0r
0s
1t
0u
0v
1w
1x
xy
xz
0{
x|
1}
1~
x!!
1"!
x#!
0$!
1%!
1&!
x'!
x(!
x)!
0*!
0+!
1,!
1-!
1.!
0/!
00!
11!
02!
03!
04!
15!
06!
07!
08!
0Y!
x#
x$
x%
x&
x'
x(
x)
x*
1,
1-
1.
1/
10
11
12
13
1G
1H
1I
1J
1K
1L
1M
1N
09!
0:!
0;!
0<!
0=!
0>!
0?!
0@!
0A!
0B!
0C!
0D!
0E!
0F!
0G!
0H!
1I!
0J!
xK!
xL!
xM!
xN!
xO!
xP!
xQ!
xR!
1S!
1T!
1U!
xV!
1W!
xX!
1`
1a
1b
0c
1\
1]
1^
0_
1X
1Y
1Z
1[
xO
xP
xQ
xR
xS
xT
xU
xV
$end
#1000
1!
1D
1m
1c
1n
#2000
0!
15
0D
1C
17!
0m
0c
0n
#3000
1!
1D
1m
1c
1n
#4000
0!
05
0D
0C
07!
0m
0c
0n
#5000
1!
1D
1m
1c
1n
#6000
0!
15
0D
1C
17!
0m
0c
0n
#7000
1!
1D
1m
1c
1n
#8000
0!
05
17
0D
0C
1B
1u
07!
0m
0c
0n
#9000
1!
1D
1m
1c
1n
#10000
0!
15
16
0D
1C
1E
1r
17!
0m
1_
0c
0-!
0[
0n
1s
0.!
1Y!
#11000
1!
1D
1m
1c
1n
#12000
0!
05
0D
0C
07!
0m
0c
0n
#13000
1!
1D
1m
1c
1n
#14000
0!
15
0D
1C
17!
0m
0c
0n
#15000
1!
1D
1m
1c
1n
#16000
0!
05
07
0D
0C
0B
0u
07!
0m
0c
0n
#17000
1!
1D
1m
1c
1n
#18000
0!
15
0D
1C
17!
0m
0c
0n
#19000
1!
1D
1m
1c
1n
#20000
0!
05
0D
0C
07!
0m
0c
0n
#21000
1!
1D
1m
1c
1n
#22000
0!
15
0D
1C
17!
0m
0c
0n
#23000
1!
1D
1m
1c
1n
#24000
0!
05
17
0D
0C
1B
1u
07!
0m
0c
0n
#25000
1!
1D
1m
1c
1n
#26000
0!
15
0D
1C
17!
0m
0c
0n
#27000
1!
1D
1m
1c
1n
#28000
0!
05
0D
0C
07!
0m
0c
0n
#29000
1!
1D
1m
1c
1n
#30000
0!
15
0D
1C
17!
0m
0c
0n
#31000
1!
1D
1m
1c
1n
#32000
0!
05
07
0D
0C
0B
0u
07!
0m
0c
0n
#33000
1!
1D
1m
1c
1n
#34000
0!
15
0D
1C
17!
0m
0c
0n
#35000
1!
1D
1m
1c
1n
#36000
0!
05
0D
0C
07!
0m
0c
0n
#37000
1!
1D
1m
1c
1n
#38000
0!
15
0D
1C
17!
0m
0c
0n
#39000
1!
1D
1m
1c
1n
#40000
0!
05
17
0D
0C
1B
1u
07!
0m
0c
0n
#41000
1!
1D
1m
1c
1n
#42000
0!
15
0D
1C
17!
0m
0c
0n
#43000
1!
1D
1m
1c
1n
#44000
0!
05
0D
0C
07!
0m
0c
0n
#45000
1!
1D
1m
1c
1n
#46000
0!
15
0D
1C
17!
0m
0c
0n
#47000
1!
1D
1m
1c
1n
#48000
0!
05
07
0D
0C
0B
0u
07!
0m
0c
0n
#49000
1!
1D
1m
1c
1n
#50000
0!
15
0D
1C
17!
0m
0c
0n
#51000
1!
1D
1m
1c
1n
#52000
0!
05
0D
0C
07!
0m
0c
0n
#53000
1!
1D
1m
1c
1n
#54000
0!
15
0D
1C
17!
0m
0c
0n
#55000
1!
1D
1m
1c
1n
#56000
0!
05
17
0D
0C
1B
1u
07!
0m
0c
0n
#57000
1!
1D
1m
1c
1n
#58000
0!
15
0D
1C
17!
0m
0c
0n
#59000
1!
1D
1m
1c
1n
#60000
0!
05
0D
0C
07!
0m
0c
0n
#61000
1!
1D
1m
1c
1n
#62000
0!
15
0D
1C
17!
0m
0c
0n
#63000
1!
1D
1m
1c
1n
#64000
0!
05
07
0D
0C
0B
0u
07!
0m
0c
0n
#65000
1!
1D
1m
1c
1n
#66000
0!
15
0D
1C
17!
0m
0c
0n
#67000
1!
1D
1m
1c
1n
#68000
0!
05
0D
0C
07!
0m
0c
0n
#69000
1!
1D
1m
1c
1n
#70000
0!
15
0D
1C
17!
0m
0c
0n
#71000
1!
1D
1m
1c
1n
#72000
0!
05
17
0D
0C
1B
1u
07!
0m
0c
0n
#73000
1!
1D
1m
1c
1n
#74000
0!
15
0D
1C
17!
0m
0c
0n
#75000
1!
1D
1m
1c
1n
#76000
0!
05
0D
0C
07!
0m
0c
0n
#77000
1!
1D
1m
1c
1n
#78000
0!
15
0D
1C
17!
0m
0c
0n
#79000
1!
1D
1m
1c
1n
#80000
0!
05
07
0D
0C
0B
0u
07!
0m
0c
0n
#81000
1!
1D
1m
1c
1n
#82000
0!
15
0D
1C
17!
0m
0c
0n
#83000
1!
1D
1m
1c
1n
#84000
0!
05
0D
0C
07!
0m
0c
0n
#85000
1!
1D
1m
1c
1n
#86000
0!
15
0D
1C
17!
0m
0c
0n
#87000
1!
1D
1m
1c
1n
#88000
0!
05
17
0D
0C
1B
1u
07!
0m
0c
0n
#89000
1!
1D
1m
1c
1n
#90000
0!
15
0D
1C
17!
0m
0c
0n
#91000
1!
1D
1m
1c
1n
#92000
0!
05
0D
0C
07!
0m
0c
0n
#93000
1!
1D
1m
1c
1n
#94000
0!
15
0D
1C
17!
0m
0c
0n
#95000
1!
1D
1m
1c
1n
#96000
0!
05
07
0D
0C
0B
0u
07!
0m
0c
0n
#97000
1!
1D
1m
1c
1n
#98000
0!
15
0D
1C
17!
0m
0c
0n
#99000
1!
1D
1m
1c
1n
#100000
0!
05
0D
0C
07!
0m
0c
0n
#101000
1!
1D
1m
1c
1n
#102000
0!
15
0D
1C
17!
0m
0c
0n
#103000
1!
1D
1m
1c
1n
#104000
0!
05
17
0D
0C
1B
1u
07!
0m
0c
0n
#105000
1!
1D
1m
1c
1n
#106000
0!
15
0D
1C
17!
0m
0c
0n
#107000
1!
1D
1m
1c
1n
#108000
0!
05
0D
0C
07!
0m
0c
0n
#109000
1!
1D
1m
1c
1n
#110000
0!
15
0D
1C
17!
0m
0c
0n
#111000
1!
1D
1m
1c
1n
#112000
0!
05
07
0D
0C
0B
0u
07!
0m
0c
0n
#113000
1!
1D
1m
1c
1n
#114000
0!
15
0D
1C
17!
0m
0c
0n
#115000
1!
1D
1m
1c
1n
#116000
0!
05
0D
0C
07!
0m
0c
0n
#117000
1!
1D
1m
1c
1n
#118000
0!
15
0D
1C
17!
0m
0c
0n
#119000
1!
1D
1m
1c
1n
#120000
0!
05
17
0D
0C
1B
1u
07!
0m
0c
0n
#121000
1!
1D
1m
1c
1n
#122000
0!
15
0D
1C
17!
0m
0c
0n
#123000
1!
1D
1m
1c
1n
#124000
0!
05
0D
0C
07!
0m
0c
0n
#125000
1!
1D
1m
1c
1n
#126000
0!
15
0D
1C
17!
0m
0c
0n
#127000
1!
1D
1m
1c
1n
#128000
0!
05
07
0D
0C
0B
0u
07!
0m
0c
0n
#129000
1!
1D
1m
1c
1n
#130000
0!
15
0D
1C
17!
0m
0c
0n
#131000
1!
1D
1m
1c
1n
#132000
0!
05
0D
0C
07!
0m
0c
0n
#133000
1!
1D
1m
1c
1n
#134000
0!
15
0D
1C
17!
0m
0c
0n
#135000
1!
1D
1m
1c
1n
#136000
0!
05
17
0D
0C
1B
1u
07!
0m
0c
0n
#137000
1!
1D
1m
1c
1n
#138000
0!
15
0D
1C
17!
0m
0c
0n
#139000
1!
1D
1m
1c
1n
#140000
0!
05
0D
0C
07!
0m
0c
0n
#141000
1!
1D
1m
1c
1n
#142000
0!
15
0D
1C
17!
0m
0c
0n
#143000
1!
1D
1m
1c
1n
#144000
0!
05
07
0D
0C
0B
0u
07!
0m
0c
0n
#145000
1!
1D
1m
1c
1n
#146000
0!
15
0D
1C
17!
0m
0c
0n
#147000
1!
1D
1m
1c
1n
#148000
0!
05
0D
0C
07!
0m
0c
0n
#149000
1!
1D
1m
1c
1n
#150000
0!
15
0D
1C
17!
0m
0c
0n
#151000
1!
1D
1m
1c
1n
#152000
0!
05
17
0D
0C
1B
1u
07!
0m
0c
0n
#153000
1!
1D
1m
1c
1n
#154000
0!
15
0D
1C
17!
0m
0c
0n
#155000
1!
1D
1m
1c
1n
#156000
0!
05
0D
0C
07!
0m
0c
0n
#157000
1!
1D
1m
1c
1n
#158000
0!
15
0D
1C
17!
0m
0c
0n
#159000
1!
1D
1m
1c
1n
#160000
0!
05
07
0D
0C
0B
0u
07!
0m
0c
0n
#161000
1!
1D
1m
1c
1n
#162000
0!
15
0D
1C
17!
0m
0c
0n
#163000
1!
1D
1m
1c
1n
#164000
0!
05
0D
0C
07!
0m
0c
0n
#165000
1!
1D
1m
1c
1n
#166000
0!
15
0D
1C
17!
0m
0c
0n
#167000
1!
1D
1m
1c
1n
#168000
0!
05
17
0D
0C
1B
1u
07!
0m
0c
0n
#169000
1!
1D
1m
1c
1n
#170000
0!
15
0D
1C
17!
0m
0c
0n
#171000
1!
1D
1m
1c
1n
#172000
0!
05
0D
0C
07!
0m
0c
0n
#173000
1!
1D
1m
1c
1n
#174000
0!
15
0D
1C
17!
0m
0c
0n
#175000
1!
1D
1m
1c
1n
#176000
0!
05
07
0D
0C
0B
0u
07!
0m
0c
0n
#177000
1!
1D
1m
1c
1n
#178000
0!
15
0D
1C
17!
0m
0c
0n
#179000
1!
1D
1m
1c
1n
#180000
0!
05
0D
0C
07!
0m
0c
0n
#181000
1!
1D
1m
1c
1n
#182000
0!
15
0D
1C
17!
0m
0c
0n
#183000
1!
1D
1m
1c
1n
#184000
0!
05
17
0D
0C
1B
1u
07!
0m
0c
0n
#185000
1!
1D
1m
1c
1n
#186000
0!
15
0D
1C
17!
0m
0c
0n
#187000
1!
1D
1m
1c
1n
#188000
0!
05
0D
0C
07!
0m
0c
0n
#189000
1!
1D
1m
1c
1n
#190000
0!
15
0D
1C
17!
0m
0c
0n
#191000
1!
1D
1m
1c
1n
#192000
0!
05
07
0D
0C
0B
0u
07!
0m
0c
0n
#193000
1!
1D
1m
1c
1n
#194000
0!
15
0D
1C
17!
0m
0c
0n
#195000
1!
1D
1m
1c
1n
#196000
0!
05
0D
0C
07!
0m
0c
0n
#197000
1!
1D
1m
1c
1n
#198000
0!
15
0D
1C
17!
0m
0c
0n
#199000
1!
1D
1m
1c
1n
#200000
0!
05
17
0D
0C
1B
1u
07!
0m
0c
0n
#201000
1!
1D
1m
1c
1n
#202000
0!
15
0D
1C
17!
0m
0c
0n
#203000
1!
1D
1m
1c
1n
#204000
0!
05
0D
0C
07!
0m
0c
0n
#205000
1!
1D
1m
1c
1n
#206000
0!
15
0D
1C
17!
0m
0c
0n
#207000
1!
1D
1m
1c
1n
#208000
0!
05
07
0D
0C
0B
0u
07!
0m
0c
0n
#209000
1!
1D
1m
1c
1n
#210000
0!
15
0D
1C
17!
0m
0c
0n
#211000
1!
1D
1m
1c
1n
#212000
0!
05
0D
0C
07!
0m
0c
0n
#213000
1!
1D
1m
1c
1n
#214000
0!
15
0D
1C
17!
0m
0c
0n
#215000
1!
1D
1m
1c
1n
#216000
0!
05
17
0D
0C
1B
1u
07!
0m
0c
0n
#217000
1!
1D
1m
1c
1n
#218000
0!
15
0D
1C
17!
0m
0c
0n
#219000
1!
1D
1m
1c
1n
#220000
0!
05
0D
0C
07!
0m
0c
0n
#221000
1!
1D
1m
1c
1n
#222000
0!
15
0D
1C
17!
0m
0c
0n
#223000
1!
1D
1m
1c
1n
#224000
0!
05
07
0D
0C
0B
0u
07!
0m
0c
0n
#225000
1!
1D
1m
1c
1n
#226000
0!
15
0D
1C
17!
0m
0c
0n
#227000
1!
1D
1m
1c
1n
#228000
0!
05
0D
0C
07!
0m
0c
0n
#229000
1!
1D
1m
1c
1n
#230000
0!
15
0D
1C
17!
0m
0c
0n
#231000
1!
1D
1m
1c
1n
#232000
0!
05
17
0D
0C
1B
1u
07!
0m
0c
0n
#233000
1!
1D
1m
1c
1n
#234000
0!
15
0D
1C
17!
0m
0c
0n
#235000
1!
1D
1m
1c
1n
#236000
0!
05
0D
0C
07!
0m
0c
0n
#237000
1!
1D
1m
1c
1n
#238000
0!
15
0D
1C
17!
0m
0c
0n
#239000
1!
1D
1m
1c
1n
#240000
0!
05
07
0D
0C
0B
0u
07!
0m
0c
0n
#241000
1!
1D
1m
1c
1n
#242000
0!
15
0D
1C
17!
0m
0c
0n
#243000
1!
1D
1m
1c
1n
#244000
0!
05
0D
0C
07!
0m
0c
0n
#245000
1!
1D
1m
1c
1n
#246000
0!
15
0D
1C
17!
0m
0c
0n
#247000
1!
1D
1m
1c
1n
#248000
0!
05
17
0D
0C
1B
1u
07!
0m
0c
0n
#249000
1!
1D
1m
1c
1n
#250000
0!
15
0D
1C
17!
0m
0c
0n
#251000
1!
1D
1m
1c
1n
#252000
0!
05
0D
0C
07!
0m
0c
0n
#253000
1!
1D
1m
1c
1n
#254000
0!
15
0D
1C
17!
0m
0c
0n
#255000
1!
1D
1m
1c
1n
#256000
0!
05
07
0D
0C
0B
0u
07!
0m
0c
0n
#257000
1!
1D
1m
1c
1n
#258000
0!
15
0D
1C
17!
0m
0c
0n
#259000
1!
1D
1m
1c
1n
#260000
05
17
0,
0-
0.
0/
00
01
02
03
0C
1B
0N
0M
0L
0K
0J
0I
0H
0G
0w
0x
0~
0"!
0}
0o
0%!
0&!
1u
07!
0W!
0U!
0T!
0S!
1{
0I!
1$!
#270000
15
1C
17!
#280000
0!
0"
0D
0A
0t
0m
0c
0n
#300000
1!
07
1D
0B
0u
1m
1c
1v
1n
xF!
xA!
xB!
xE!
xC!
xD!
xH!
xG!
#320000
0!
0D
0m
0c
0n
#330000
17
1B
1u
0v
#340000
1!
1D
1m
1c
1n
#360000
0!
0D
0m
0c
0n
#380000
1!
1D
1m
1c
1n
#400000
0!
0D
0m
0c
0n
#420000
1!
1D
1m
1c
1n
#430000
05
0C
07!
18!
0d
0e
0f
0g
0h
0i
0j
0k
#440000
0!
0D
0m
0c
0n
#460000
1!
1D
1m
1c
1n
#480000
0!
0D
0m
0c
0n
#500000
1!
15
1D
1C
17!
1m
1c
08!
1n
zd
ze
zf
zg
zh
zi
zj
zk
#520000
0!
0D
0m
0c
0n
#540000
1!
1D
1m
1c
1n
#560000
0!
0D
0m
0c
0n
#580000
1!
1D
1m
1c
1n
#600000
0!
0D
0m
0c
0n
#620000
1!
1D
1m
1c
1n
#640000
0!
0D
0m
0c
0n
#660000
1!
1D
1m
1c
1n
#680000
0!
0D
0m
0c
0n
#700000
1!
1D
1m
1c
1n
#720000
0!
0D
0m
0c
0n
#740000
1!
1D
1m
1c
1n
#760000
0!
0D
0m
0c
0n
#780000
1!
1D
1m
1c
1n
#800000
0!
0D
0m
0c
0n
#820000
1!
1D
1m
1c
1n
#840000
0!
0D
0m
0c
0n
#860000
1!
1D
1m
1c
1n
#880000
0!
0D
0m
0c
0n
#900000
1!
1D
1m
1c
1n
#920000
0!
0D
0m
0c
0n
#940000
1!
1D
1m
1c
1n
#960000
0!
0D
0m
0c
0n
#980000
1!
1D
1m
1c
1n
